Netzwerkanalyse mit tidygraph
…
Besides, the entities remain activated.

toy_example_node_edge_attr %>% 
  as_tibble()

## # A tibble: 183 x 3
##     from    to weight
##    <int> <int>  <int>
##  1     2     1      5
##  2     3     1      4
##  3     5     1      2
##  4     7     1      5
##  5     9     1      4
##  6    10     1      2
##  7    11     1      4
##  8    13     1      2
##  9    14     1      1
## 10    20     1      2
## #  with 173 more rows
…
## # A tibble: 0 x 4
## #  with 4 variables: from <int>, to <int>, weight <int>,
## #   sexual_orientation <chr>

arrange() changes the order of the edges.

toy_example_sex_orientation %>% 
  activate(nodes) %>% 
  arrange(desc(name)) %>%  
  activate(edges) %>% 
  as_tibble()

## # A tibble: 183 x 4
##     from    to weight sexual_orientation
##    <int> <int>  <int> <chr>             
##  1    19    20      5 homosexual        
##  2    18    20      4 homosexual        
##  3    16    20      2 homosexual        
##  4    14    20      5 homosexual        
##  5    12    20      4 homosexual        
##  6    11    20      2 homosexual        
##  7    10    20      4 homosexual        
##  8     8    20      2 homosexual        
##  9     7    20      1 homosexual        
## 10     1    20      2 homosexual        
## #  with 173 more rows
…
