Further functions
…
Node relations

There do also exist some measures that deal with how nodes are related: ?pair_measures

jamaika_graph %N>% 
  mutate(distance_to = node_distance_to(1)
         ) %>% 
  as_tibble()

## # A tibble: 315 x 3
##    name            party       distance_to
##    <chr>           <chr>             <dbl>
##  1 peteraltmaier   CDU                   0
##  2 KerstinAndreae  DIE GRUENEN           2
##  3 NielsAnnen      SPD                   2
##  4 badulrichmartha DIE GRUENEN           2
##  5 DoroBaer        CSU                   1
##  6 ABaerbock       DIE GRUENEN           2
##  7 Thomas_Bareiss  CDU                   2
##  8 soerenbartol    SPD                   2
##  9 baerbelbas      SPD                   2
## 10 MargareteBause  DIE GRUENEN           2
## #  with 305 more rows

Nodes neighborhood

?local_graph

jamaika_graph %>% 
  simplify() %>% 
  as_tbl_graph() %N>% 
  mutate(ave_degree = local_ave_degree()) %>% 
  as_tibble()

## # A tibble: 315 x 3
##    name            party       ave_degree
##    <chr>           <chr>            <dbl>
##  1 peteraltmaier   CDU               24.5
##  2 KerstinAndreae  DIE GRUENEN       25.8
##  3 NielsAnnen      SPD               16.6
##  4 badulrichmartha DIE GRUENEN       23.7
##  5 DoroBaer        CSU               27.6
##  6 ABaerbock       DIE GRUENEN       27.6
##  7 Thomas_Bareiss  CDU               17.8
##  8 soerenbartol    SPD               25.8
##  9 baerbelbas      SPD               44.5
## 10 MargareteBause  DIE GRUENEN       28.7
## #  with 305 more rows
